TEAM		STATISTICS		TOTAL
NAME		FG%	FT%	3PM	TP%	REB	AST	STL	STR	BLK	TO	DD	TD	QD	PTS		SCORE
PD Garden City Radicchiati (95-124-33)		.4970	.7302	40	.3960	298	140	41	0.603	37	68	10	1	0	624		8-4-2
Cadoneghe Sbardellers (124-86-42)		.4946	.8650	83	.4089	197	135	35	0.515	31	68	3	0	0	772		4-8-2
Full Box Score
 
TEAM		STATISTICS		TOTAL
NAME		FG%	FT%	3PM	TP%	REB	AST	STL	STR	BLK	TO	DD	TD	QD	PTS		SCORE
Amore per tutti (125-100-27)		.4302	.8091	64	.3516	247	171	64	0.762	36	84	10	0	0	597		7-5-2
Team Spinelli (100-118-34)		.4762	.8232	53	.4109	220	124	31	0.508	26	61	6	0	0	608		5-7-2
Full Box Score
 
TEAM		STATISTICS		TOTAL
NAME		FG%	FT%	3PM	TP%	REB	AST	STL	STR	BLK	TO	DD	TD	QD	PTS		SCORE
Ciccino Lo Balbo Boys (99-123-30)		.4788	.7736	81	.4402	227	198	44	0.524	22	84	4	1	0	768		6-7-1
Torreglia Hot Carls (101-116-35)		.4903	.8521	69	.3450	253	163	35	0.372	25	94	9	3	0	796		7-6-1
Full Box Score
 
TEAM		STATISTICS		TOTAL
NAME		FG%	FT%	3PM	TP%	REB	AST	STL	STR	BLK	TO	DD	TD	QD	PTS		SCORE
Ploaghe Porceddus (88-137-27)		.4452	.8115	42	.3281	281	136	23	0.359	22	64	14	3	0	523		3-9-2
Madrid Daytodayers (125-90-37)		.4844	.7895	74	.3645	310	184	50	0.676	43	74	14	1	0	906		9-3-2
Full Box Score
 
TEAM		STATISTICS		TOTAL
NAME		FG%	FT%	3PM	TP%	REB	AST	STL	STR	BLK	TO	DD	TD	QD	PTS		SCORE
Curry curry Bovolenters (112-110-30)		.4556	.8240	58	.3742	225	139	39	0.476	30	82	5	0	0	633		7-6-1
Chicago Squirt (129-94-29)		.4757	.7545	57	.3115	340	170	31	0.320	26	97	12	1	0	789		6-7-1
Full Box Score
 

