TEAM		STATISTICS		TOTAL
NAME		FG%	FT%	3PM	TP%	REB	AST	STL	STR	BLK	TO	DD	TD	QD	PTS		SCORE
Team Spinelli (60-72-22)		.4775	.7972	60	.3593	223	153	40	0.541	21	74	7	0	0	704		4-6-4
Cadoneghe Sbardellers (79-50-25)		.4677	.8252	80	.4040	253	123	34	0.466	36	73	7	0	0	704		6-4-4
Full Box Score
 
TEAM		STATISTICS		TOTAL
NAME		FG%	FT%	3PM	TP%	REB	AST	STL	STR	BLK	TO	DD	TD	QD	PTS		SCORE
Madrid Daytodayers (73-58-23)		.5114	.7799	78	.4407	222	103	30	0.361	26	83	5	0	0	696		9-3-2
Torreglia Hot Carls (63-68-23)		.4495	.8762	54	.3673	137	93	29	0.537	22	54	3	0	0	484		3-9-2
Full Box Score
 
TEAM		STATISTICS		TOTAL
NAME		FG%	FT%	3PM	TP%	REB	AST	STL	STR	BLK	TO	DD	TD	QD	PTS		SCORE
Chicago Squirt (75-60-19)		.4395	.7701	61	.3567	293	133	40	0.533	35	75	7	1	0	689		4-9-1
Amore per tutti (75-63-16)		.4970	.7944	52	.3824	252	174	42	0.689	36	61	8	0	0	633		9-4-1
Full Box Score
 
TEAM		STATISTICS		TOTAL
NAME		FG%	FT%	3PM	TP%	REB	AST	STL	STR	BLK	TO	DD	TD	QD	PTS		SCORE
Curry curry Bovolenters (67-68-19)		.4807	.8063	50	.3497	206	174	44	0.537	26	82	5	1	0	651		9-4-1
Ciccino Lo Balbo Boys (61-74-19)		.4671	.8031	60	.3550	197	141	40	0.635	23	63	4	0	0	630		4-9-1
Full Box Score
 
TEAM		STATISTICS		TOTAL
NAME		FG%	FT%	3PM	TP%	REB	AST	STL	STR	BLK	TO	DD	TD	QD	PTS		SCORE
Ploaghe Porceddus (55-83-16)		.4632	.7432	37	.2891	262	123	27	0.422	17	64	9	1	0	625		9-4-1
PD Garden City Radicchiati (60-72-22)		.4518	.7324	26	.2889	229	127	39	0.476	29	82	7	0	0	524		4-9-1
Full Box Score
 

