TEAM		STATISTICS		TOTAL
NAME		FG%	FT%	3PM	TP%	REB	AST	STL	STR	BLK	TO	DD	TD	QD	PTS		SCORE
Cadoneghe Sbardellers (55-29-14)		.4990	.8857	69	.3943	200	129	29	0.446	28	65	4	0	0	669		8-4-2
Madrid Squorrers (46-36-16)		.4455	.8098	54	.3600	222	120	35	0.417	27	84	7	0	0	710		4-8-2
Full Box Score
 
TEAM		STATISTICS		TOTAL
NAME		FG%	FT%	3PM	TP%	REB	AST	STL	STR	BLK	TO	DD	TD	QD	PTS		SCORE
Team Spinelli (36-48-14)		.4900	.7870	56	.4516	179	107	31	0.477	13	65	7	0	0	533		6-5-3
PD Garden City Radicchiati (39-44-15)		.5153	.6694	18	.4091	207	97	45	0.672	23	67	7	0	0	405		5-6-3
Full Box Score
 
TEAM		STATISTICS		TOTAL
NAME		FG%	FT%	3PM	TP%	REB	AST	STL	STR	BLK	TO	DD	TD	QD	PTS		SCORE
Ciccino Lo Balbo Boys (38-50-10)		.4687	.7544	65	.3963	162	97	41	0.641	25	64	4	0	0	555		8-5-1
Ploaghe Porceddus (27-60-11)		.5102	.6860	45	.3814	226	106	23	0.329	20	70	9	1	0	530		5-8-1
Full Box Score
 
TEAM		STATISTICS		TOTAL
NAME		FG%	FT%	3PM	TP%	REB	AST	STL	STR	BLK	TO	DD	TD	QD	PTS		SCORE
Amore per tutti (42-45-11)		.4889	.7742	56	.4029	225	141	43	0.531	21	81	9	0	0	570		5-7-2
Curry curry Bovolenters (46-38-14)		.4750	.8478	65	.3736	219	158	60	0.706	22	85	6	0	0	714		7-5-2
Full Box Score
 
TEAM		STATISTICS		TOTAL
NAME		FG%	FT%	3PM	TP%	REB	AST	STL	STR	BLK	TO	DD	TD	QD	PTS		SCORE
Torreglia Hot Carls (46-35-17)		.4548	.7414	48	.3288	115	120	20	0.476	12	42	3	0	0	393		2-10-2
Chicago Squirt (47-37-14)		.4951	.7923	51	.3400	251	152	24	0.296	19	81	8	0	0	656		10-2-2
Full Box Score
