TEAM		STATISTICS		TOTAL
NAME		FG%	FT%	3PM	TP%	REB	AST	STL	STR	BLK	TO	DD	TD	QD	PTS		SCORE
Amore per tutti (18-42-10)		.4566	.7984	48	.3000	222	124	32	0.615	37	52	8	0	0	631		6-6-2
Cadoneghe Sbardellers (35-25-10)		.5115	.8435	56	.4444	214	98	41	0.774	25	53	3	0	0	599		6-6-2
Full Box Score
 
TEAM		STATISTICS		TOTAL
NAME		FG%	FT%	3PM	TP%	REB	AST	STL	STR	BLK	TO	DD	TD	QD	PTS		SCORE
Team Spinelli (35-25-10)		.4535	.8333	59	.3734	269	145	41	0.436	36	94	8	2	0	662		6-6-2
Madrid TeaBaggers (33-29-8)		.4497	.7521	61	.3861	254	147	36	0.493	22	73	11	2	0	626		6-6-2
Full Box Score
 
TEAM		STATISTICS		TOTAL
NAME		FG%	FT%	3PM	TP%	REB	AST	STL	STR	BLK	TO	DD	TD	QD	PTS		SCORE
Induriti AndOners (40-21-9)		.4624	.8465	71	.3817	207	175	38	0.458	21	83	7	0	0	734		5-6-3
Chicago Squirt (27-28-15)		.4697	.7660	58	.4531	262	104	36	0.554	42	65	7	0	0	584		6-5-3
Full Box Score
 
TEAM		STATISTICS		TOTAL
NAME		FG%	FT%	3PM	TP%	REB	AST	STL	STR	BLK	TO	DD	TD	QD	PTS		SCORE
Torreglia Spacedockers (28-29-13)		.4699	.7976	39	.3391	254	148	49	0.557	45	88	10	1	0	673		9-4-1
Ploaghe Porceddus (18-40-12)		.5011	.6975	46	.4107	199	97	26	0.333	27	78	5	0	0	583		4-9-1
Full Box Score
 
TEAM		STATISTICS		TOTAL
NAME		FG%	FT%	3PM	TP%	REB	AST	STL	STR	BLK	TO	DD	TD	QD	PTS		SCORE
Odore di Radicchio (26-31-13)		.4521	.7290	25	.3012	196	80	34	0.596	24	57	6	0	0	433		4-8-2
Ponte 4 martirers (35-25-10)		.4642	.8182	48	.3380	165	133	45	0.652	15	69	2	0	0	566		8-4-2
Full Box Score
 

