TEAM		STATISTICS		TOTAL
NAME		FG%	FT%	3PM	TP%	REB	AST	STL	STR	BLK	TO	DD	TD	QD	PTS		SCORE
Cadoneghe Sbardellers (90-58-20)		.4790	.7267	51	.3864	242	143	38	0.469	13	81	7	0	0	602		2-11-1
Madrid TeaBaggers (96-54-18)		.4936	.7762	66	.4125	279	164	40	0.465	24	86	11	3	0	713		11-2-1
Full Box Score
 
TEAM		STATISTICS		TOTAL
NAME		FG%	FT%	3PM	TP%	REB	AST	STL	STR	BLK	TO	DD	TD	QD	PTS		SCORE
Ploaghe Porceddus (57-85-26)		.4831	.6275	31	.4559	135	98	17	0.425	8	40	4	0	0	321		4-8-2
Team Spinelli (85-60-23)		.4571	.8913	35	.3302	154	81	30	0.556	16	54	7	0	0	415		8-4-2
Full Box Score
 
TEAM		STATISTICS		TOTAL
NAME		FG%	FT%	3PM	TP%	REB	AST	STL	STR	BLK	TO	DD	TD	QD	PTS		SCORE
Ponte 4 martirers (67-77-24)		.5070	.8222	43	.3805	164	101	38	0.543	20	70	6	0	0	590		6-5-3
Chicago Squirt (55-84-29)		.5095	.7477	44	.4231	209	69	26	0.413	15	63	6	0	0	503		5-6-3
Full Box Score
 
TEAM		STATISTICS		TOTAL
NAME		FG%	FT%	3PM	TP%	REB	AST	STL	STR	BLK	TO	DD	TD	QD	PTS		SCORE
Amore per tutti (62-83-23)		.4662	.7600	44	.3667	242	121	36	0.500	20	72	6	0	0	506		7-6-1
Induriti AndOners (83-63-22)		.4363	.8125	56	.3353	171	139	27	0.370	28	73	4	2	0	591		6-7-1
Full Box Score
 
TEAM		STATISTICS		TOTAL
NAME		FG%	FT%	3PM	TP%	REB	AST	STL	STR	BLK	TO	DD	TD	QD	PTS		SCORE
Odore di Radicchio (56-85-27)		.4662	.6765	47	.4159	239	103	41	0.661	30	62	4	0	0	516		5-7-2
Torreglia Spacedockers (70-72-26)		.4715	.7943	34	.3091	231	172	50	0.588	36	85	7	0	0	626		7-5-2
Full Box Score
