TEAM		STATISTICS		TOTAL
NAME		FG%	FT%	3PM	TP%	REB	AST	STL	STR	BLK	TO	DD	TD	QD	PTS		SCORE
Ciccino Lo Balbo Boys (25-37-8)		.4289	.8500	60	.3774	185	103	40	0.500	18	80	3	0	0	478		3-9-2
Cadoneghe Sbardellers (41-19-10)		.4360	.8881	65	.3023	214	127	32	0.405	19	79	7	0	0	696		9-3-2
Full Box Score
 
TEAM		STATISTICS		TOTAL
NAME		FG%	FT%	3PM	TP%	REB	AST	STL	STR	BLK	TO	DD	TD	QD	PTS		SCORE
Team Spinelli (22-39-9)		.4751	.8923	62	.4247	181	110	20	0.333	20	60	5	0	0	540		4-8-2
Curry curry Bovolenters (31-29-10)		.4728	.8026	70	.3889	249	180	51	0.548	31	93	9	0	0	730		8-4-2
Full Box Score
 
TEAM		STATISTICS		TOTAL
NAME		FG%	FT%	3PM	TP%	REB	AST	STL	STR	BLK	TO	DD	TD	QD	PTS		SCORE
Ploaghe Porceddus (18-44-8)		.4754	.8818	34	.3864	218	97	16	0.239	12	67	7	0	0	479		3-9-2
Chicago Squirt (29-30-11)		.4921	.6889	48	.3636	235	129	45	0.529	33	85	8	0	0	641		9-3-2
Full Box Score
 
TEAM		STATISTICS		TOTAL
NAME		FG%	FT%	3PM	TP%	REB	AST	STL	STR	BLK	TO	DD	TD	QD	PTS		SCORE
PD Garden City Radicchiati (30-30-10)		.4869	.7797	29	.3766	231	125	33	0.500	27	66	10	0	0	493		7-4-3
Madrid Squorrers (34-23-13)		.4628	.7414	54	.3576	208	120	46	0.548	27	84	3	0	0	643		4-7-3
Full Box Score
 
TEAM		STATISTICS		TOTAL
NAME		FG%	FT%	3PM	TP%	REB	AST	STL	STR	BLK	TO	DD	TD	QD	PTS		SCORE
Amore per tutti (32-30-8)		.4595	.7339	43	.3805	262	123	29	0.397	21	73	9	0	0	531		6-6-2
Torreglia Hot Carls (38-19-13)		.4167	.8454	54	.3506	206	123	41	0.519	24	79	6	1	0	466		6-6-2
Full Box Score
 

