
TEAM		STATISTICS		TOTAL
NAME		FG%	FT%	3PM	TP%	REB	AST	STL	STR	BLK	TO	DD	TD	QD	PTS		SCORE
Cadoneghe Sbardellers (69-52-19)		.4426	.7744	56	.3478	239	145	52	0.675	21	77	6	0	0	637		6-6-2
Madrid AssTrainers (70-50-20)		.4431	.7568	38	.2992	270	165	37	0.578	38	64	11	0	0	606		6-6-2
Full Box Score

TEAM		STATISTICS		TOTAL
NAME		FG%	FT%	3PM	TP%	REB	AST	STL	STR	BLK	TO	DD	TD	QD	PTS		SCORE
Team Perali (53-69-18)		.4694	.6929	32	.3855	172	97	31	0.554	20	56	3	0	0	488		2-10-2
Sciarlot DirtySanchez (50-69-21)		.4712	.7543	33	.3548	220	144	46	0.630	28	73	8	0	0	525		10-2-2
Full Box Score

TEAM		STATISTICS		TOTAL
NAME		FG%	FT%	3PM	TP%	REB	AST	STL	STR	BLK	TO	DD	TD	QD	PTS		SCORE
Torreglia Shockers (61-62-17)		.4699	.7226	40	.4348	280	114	38	0.469	21	81	13	0	0	574		8-4-2
Chicago Squirt (51-71-18)		.4197	.6619	19	.2836	217	120	36	0.537	32	67	2	0	0	461		4-8-2
Full Box Score

TEAM		STATISTICS		TOTAL
NAME		FG%	FT%	3PM	TP%	REB	AST	STL	STR	BLK	TO	DD	TD	QD	PTS		SCORE
Amore per tutti (64-57-19)		.4283	.8402	55	.3741	247	142	41	0.539	34	76	7	2	0	615		9-4-1
Ploaghe Porceddus (60-62-18)		.4427	.7451	58	.3372	227	126	39	0.464	23	84	9	0	0	674		4-9-1
Full Box Score

TEAM		STATISTICS		TOTAL
NAME		FG%	FT%	3PM	TP%	REB	AST	STL	STR	BLK	TO	DD	TD	QD	PTS		SCORE
Pyongyang Best Korea (57-62-21)		.4930	.7610	59	.3882	263	116	44	0.468	34	94	6	0	0	672		8-5-1
Ponte4 martirers (71-52-17)		.4478	.7857	45	.3879	200	129	41	0.745	16	55	4	1	0	590		5-8-1
Full Box Score