TEAM		STATISTICS		TOTAL
NAME		FG%	FT%	3PM	TP%	REB	AST	STL	STR	BLK	TO	DD	TD	QD	PTS		SCORE
Cadoneghe Sbardellers (130-114-36)		.4418	.8700	44	.3359	211	142	33	0.458	22	72	9	2	0	503		5-7-2
Ploaghe Porceddus (121-118-41)		.4573	.8012	81	.4378	238	133	43	0.512	22	84	7	0	0	728		7-5-2
Full Box Score
 
TEAM		STATISTICS		TOTAL
NAME		FG%	FT%	3PM	TP%	REB	AST	STL	STR	BLK	TO	DD	TD	QD	PTS		SCORE
Madrid AssTrainers (134-104-42)		.4642	.7717	57	.3540	253	176	47	0.534	32	88	8	0	0	822		9-4-1
Sciarlot DirtySanchez (117-120-43)		.4426	.8652	43	.3496	199	162	36	0.414	28	87	9	1	0	535		4-9-1
Full Box Score
 
TEAM		STATISTICS		TOTAL
NAME		FG%	FT%	3PM	TP%	REB	AST	STL	STR	BLK	TO	DD	TD	QD	PTS		SCORE
Team Perali (92-149-39)		.4518	.6992	26	.3611	272	125	33	0.388	27	85	9	3	0	569		5-7-2
Chicago Squirt (102-140-38)		.4988	.8421	44	.4037	240	110	33	0.423	29	78	8	0	0	560		7-5-2
Full Box Score
 
TEAM		STATISTICS		TOTAL
NAME		FG%	FT%	3PM	TP%	REB	AST	STL	STR	BLK	TO	DD	TD	QD	PTS		SCORE
Torreglia Shockers (131-115-34)		.4715	.8467	38	.3725	230	181	49	0.490	29	100	12	0	0	595		4-8-2
Ponte4 martirers (140-103-37)		.4913	.8286	58	.3816	236	133	44	1.189	35	37	6	0	0	680		8-4-2
Full Box Score
 
TEAM		STATISTICS		TOTAL
NAME		FG%	FT%	3PM	TP%	REB	AST	STL	STR	BLK	TO	DD	TD	QD	PTS		SCORE
Amore per tutti (123-120-37)		.4442	.8421	51	.3228	217	162	33	0.418	23	79	7	0	0	633		4-8-2
Pyongyang Best Korea (115-122-43)		.4588	.6894	55	.4015	220	117	53	0.663	32	80	6	0	0	636		8-4-2
Full Box Score
