
TEAM		STATISTICS		TOTAL
NAME		FG%	FT%	3PM	TP%	REB	AST	STL	STR	BLK	TO	DD	TD	QD	PTS		SCORE
Cadoneghe Sbardellers (119-90-29)		.4129	.7384	48	.2909	273	147	48	0.593	12	81	8	1	0	649		6-6-2
Amore per tutti (110-97-31)		.4375	.7961	45	.3169	258	194	54	0.574	19	94	7	1	0	642		6-6-2
Full Box Score
 
TEAM		STATISTICS		TOTAL
NAME		FG%	FT%	3PM	TP%	REB	AST	STL	STR	BLK	TO	DD	TD	QD	PTS		SCORE
Sciarlot DirtySanchez (96-105-37)		.4621	.8009	53	.3869	258	152	47	0.618	27	76	6	0	0	714		9-4-1
Torreglia Shockers (109-101-28)		.4946	.7032	33	.3267	241	153	36	0.400	26	90	8	1	0	688		4-9-1
Full Box Score
 
TEAM		STATISTICS		TOTAL
NAME		FG%	FT%	3PM	TP%	REB	AST	STL	STR	BLK	TO	DD	TD	QD	PTS		SCORE
Team Perali (82-123-33)		.4526	.6949	40	.3922	216	138	33	0.458	17	72	7	0	0	583		3-9-2
Pyongyang Best Korea (95-107-36)		.4643	.8476	56	.3810	272	111	43	0.642	33	67	6	0	0	587		9-3-2
Full Box Score
 
TEAM		STATISTICS		TOTAL
NAME		FG%	FT%	3PM	TP%	REB	AST	STL	STR	BLK	TO	DD	TD	QD	PTS		SCORE
Madrid AssTrainers (109-93-36)		.4856	.7654	42	.3818	304	154	52	0.703	48	74	13	0	0	717		4-8-2
Ponte4 martirers (120-88-30)		.5156	.8630	69	.4423	223	128	61	0.910	22	67	2	0	0	757		8-4-2
Full Box Score
 
TEAM		STATISTICS		TOTAL
NAME		FG%	FT%	3PM	TP%	REB	AST	STL	STR	BLK	TO	DD	TD	QD	PTS		SCORE
Chicago Squirt (86-120-32)		.4647	.6705	35	.3608	248	111	36	0.424	31	85	6	0	0	561		3-9-2
Ploaghe Porceddus (100-102-36)		.5022	.7963	49	.3858	212	96	44	0.880	26	50	6	1	0	597		9-3-2
Full Box Score
