TEAM		STATISTICS		TOTAL
NAME		FG%	FT%	3PM	TP%	REB	AST	STL	STR	BLK	TO	DD	TD	QD	PTS		SCORE
Cadoneghe Sbardellers (98-67-31)		.4440	.9123	68	.4048	217	133	37	0.740	26	50	5	0	0	616		9-3-2
Ciccino Lo Balbo Boys (74-97-25)		.4451	.7483	44	.2683	214	122	48	0.527	16	91	8	0	0	581		3-9-2
Full Box Score
 
TEAM		STATISTICS		TOTAL
NAME		FG%	FT%	3PM	TP%	REB	AST	STL	STR	BLK	TO	DD	TD	QD	PTS		SCORE
Curry curry Bovolenters (89-82-25)		.4617	.8319	46	.3538	132	112	47	0.783	18	60	2	0	0	478		5-6-3
Team Spinelli (73-94-29)		.4733	.7593	42	.3529	210	118	47	0.671	18	70	3	1	0	568		6-5-3
Full Box Score
 
TEAM		STATISTICS		TOTAL
NAME		FG%	FT%	3PM	TP%	REB	AST	STL	STR	BLK	TO	DD	TD	QD	PTS		SCORE
Chicago Squirt (99-72-25)		.4830	.7440	47	.3219	219	149	45	0.484	38	93	5	0	0	656		5-7-2
Ploaghe Porceddus (71-104-21)		.4902	.7946	50	.3968	253	114	28	0.359	16	78	9	0	0	589		7-5-2
Full Box Score
 
TEAM		STATISTICS		TOTAL
NAME		FG%	FT%	3PM	TP%	REB	AST	STL	STR	BLK	TO	DD	TD	QD	PTS		SCORE
Madrid Daytodayers (97-70-29)		.4824	.7011	63	.3539	253	132	49	0.590	37	83	9	0	0	740		10-2-2
PD Garden City Radicchiati (70-99-27)		.4539	.7027	28	.2917	197	112	35	0.427	31	82	5	0	0	470		2-10-2
Full Box Score
 
TEAM		STATISTICS		TOTAL
NAME		FG%	FT%	3PM	TP%	REB	AST	STL	STR	BLK	TO	DD	TD	QD	PTS		SCORE
Torreglia Hot Carls (79-90-27)		.4455	.7589	50	.3759	172	91	26	0.426	13	61	6	0	0	495		4-8-2
Amore per tutti (100-75-21)		.4437	.8491	49	.3451	253	148	34	0.479	45	71	9	0	0	549		8-4-2
Full Box Score
 

