TEAM		STATISTICS		TOTAL
NAME		FG%	FT%	3PM	TP%	REB	AST	STL	STR	BLK	TO	DD	TD	QD	PTS		SCORE
Torreglia Spacedockers (96-95-33)		.0000	.0000	0	.0000	0	0	0	0.000	0	0	0	0	0	0		0-0-14
Induriti AndOners (115-83-26)		.0000	.0000	0	.0000	0	0	0	0.000	0	0	0	0	0	0		0-0-14
Full Box Score
 
TEAM		STATISTICS		TOTAL
NAME		FG%	FT%	3PM	TP%	REB	AST	STL	STR	BLK	TO	DD	TD	QD	PTS		SCORE
Chicago Squirt (78-109-37)		.0000	.0000	0	.0000	0	0	0	0.000	0	0	0	0	0	0		0-0-14
Cadoneghe Sbardellers (115-81-28)		.0000	.0000	0	.0000	0	0	0	0.000	0	0	0	0	0	0		0-0-14
Full Box Score
 
TEAM		STATISTICS		TOTAL
NAME		FG%	FT%	3PM	TP%	REB	AST	STL	STR	BLK	TO	DD	TD	QD	PTS		SCORE
Amore per tutti (82-111-31)		.0000	.0000	0	.0000	0	0	0	0.000	0	0	0	0	0	0		0-0-14
Madrid TeaBaggers (132-70-22)		.0000	.0000	0	.0000	0	0	0	0.000	0	0	0	0	0	0		0-0-14
Full Box Score
 
TEAM		STATISTICS		TOTAL
NAME		FG%	FT%	3PM	TP%	REB	AST	STL	STR	BLK	TO	DD	TD	QD	PTS		SCORE
Ponte 4 martirers (87-107-30)		.0000	.0000	0	.0000	0	0	0	0.000	0	0	0	0	0	0		0-0-14
Team Spinelli (107-88-29)		.0000	.0000	0	.0000	0	0	0	0.000	0	0	0	0	0	0		0-0-14
Full Box Score
 
TEAM		STATISTICS		TOTAL
NAME		FG%	FT%	3PM	TP%	REB	AST	STL	STR	BLK	TO	DD	TD	QD	PTS		SCORE
Ploaghe Porceddus (78-113-33)		.0000	.0000	0	.0000	0	0	0	0.000	0	0	0	0	0	0		0-0-14
Odore di Radicchio (78-111-35)		.0000	.0000	0	.0000	0	0	0	0.000	0	0	0	0	0	0		0-0-14
Full Box Score
