
TEAM		STATISTICS		TOTAL
NAME		FG%	FT%	3PM	TP%	REB	AST	STL	STR	BLK	TO	DD	TD	QD	PTS		SCORE
Sciarlot DirtySanchez (40-67-19)		.4904	.7071	24	.3117	153	83	48	1.116	17	43	2	0	0	402		5-7-2
Cadoneghe Sbardellers (63-46-17)		.4192	.6850	56	.3457	247	140	40	0.580	22	69	11	0	0	563		7-5-2
Full Box Score
 
TEAM		STATISTICS		TOTAL
NAME		FG%	FT%	3PM	TP%	REB	AST	STL	STR	BLK	TO	DD	TD	QD	PTS		SCORE
Team Perali (51-59-16)		.4399	.6667	15	.2273	205	120	38	0.613	20	62	6	0	0	529		3-9-2
Torreglia Shockers (53-58-15)		.4647	.8052	40	.3448	221	159	30	0.294	22	102	7	0	0	598		9-3-2
Full Box Score
 
TEAM		STATISTICS		TOTAL
NAME		FG%	FT%	3PM	TP%	REB	AST	STL	STR	BLK	TO	DD	TD	QD	PTS		SCORE
Madrid AssTrainers (64-44-18)		.4698	.8155	35	.3889	224	110	27	0.403	30	67	5	0	0	461		5-6-3
Amore per tutti (55-53-18)		.4515	.8025	41	.3417	237	148	36	0.414	25	87	5	0	0	567		6-5-3
Full Box Score
 
TEAM		STATISTICS		TOTAL
NAME		FG%	FT%	3PM	TP%	REB	AST	STL	STR	BLK	TO	DD	TD	QD	PTS		SCORE
Chicago Squirt (47-63-16)		.4726	.7769	23	.3485	199	122	29	0.439	29	66	4	0	0	497		6-5-3
Pyongyang Best Korea (49-57-20)		.4336	.7826	36	.3130	198	94	40	0.580	29	69	6	0	0	436		5-6-3
Full Box Score
 
TEAM		STATISTICS		TOTAL
NAME		FG%	FT%	3PM	TP%	REB	AST	STL	STR	BLK	TO	DD	TD	QD	PTS		SCORE
Ploaghe Porceddus (56-53-17)		.4282	.8333	36	.3186	213	91	21	0.328	24	64	7	0	0	491		4-7-3
Ponte4 martirers (66-44-16)		.4831	.7549	31	.2981	214	102	46	0.821	14	56	7	0	0	538		7-4-3
Full Box Score