TEAM		STATISTICS		TOTAL
NAME		FG%	FT%	3PM	TP%	REB	AST	STL	STR	BLK	TO	DD	TD	QD	PTS		SCORE
Chicago Squirt (18-17-7)		.5162	.7500	37	.3190	249	118	29	0.293	33	99	9	0	0	756		4-7-3
Cadoneghe Sbardellers (24-12-6)		.4758	.8538	80	.3922	246	161	39	0.424	28	92	7	0	0	756		7-4-3
Full Box Score
 
TEAM		STATISTICS		TOTAL
NAME		FG%	FT%	3PM	TP%	REB	AST	STL	STR	BLK	TO	DD	TD	QD	PTS		SCORE
Team Spinelli (8-29-5)		.4599	.7969	62	.3669	137	134	36	0.643	10	56	4	0	0	520		3-9-2
Madrid Squorrers (21-13-8)		.4716	.7517	70	.4094	244	138	49	0.458	29	107	7	0	0	711		9-3-2
Full Box Score
 
TEAM		STATISTICS		TOTAL
NAME		FG%	FT%	3PM	TP%	REB	AST	STL	STR	BLK	TO	DD	TD	QD	PTS		SCORE
Curry curry Bovolenters (20-15-7)		.4809	.8203	74	.4431	219	137	43	0.500	25	86	4	0	0	633		4-6-4
Torreglia Hot Carls (22-10-10)		.4727	.8440	74	.3645	207	164	37	0.552	25	67	10	0	0	634		6-4-4
Full Box Score
 
TEAM		STATISTICS		TOTAL
NAME		FG%	FT%	3PM	TP%	REB	AST	STL	STR	BLK	TO	DD	TD	QD	PTS		SCORE
Ploaghe Porceddus (11-27-4)		.4603	.7683	38	.3333	263	118	18	0.231	13	78	10	1	0	507		3-10-1
Amore per tutti (20-18-4)		.4707	.7975	58	.3694	264	134	47	0.475	27	99	8	0	0	702		10-3-1
Full Box Score
 
TEAM		STATISTICS		TOTAL
NAME		FG%	FT%	3PM	TP%	REB	AST	STL	STR	BLK	TO	DD	TD	QD	PTS		SCORE
Garden City PD Radicchio (20-17-5)		.4561	.6667	32	.3107	262	136	41	0.513	32	80	10	1	0	534		6-7-1
Ciccino Lo Balbo Boys (16-22-4)		.4591	.8537	64	.3721	198	128	47	0.534	18	88	4	0	0	551		7-6-1
Full Box Score
