TEAM		STATISTICS		TOTAL
NAME		FG%	FT%	3PM	TP%	REB	AST	STL	STR	BLK	TO	DD	TD	QD	PTS		SCORE
Amore per tutti (66-58-16)		.4713	.8376	35	.3571	207	141	36	0.537	13	67	6	0	0	511		8-3-3
Cadoneghe Sbardellers (72-46-22)		.4462	.8083	65	.3368	202	137	32	0.478	33	67	5	0	0	626		3-8-3
Full Box Score
 
TEAM		STATISTICS		TOTAL
NAME		FG%	FT%	3PM	TP%	REB	AST	STL	STR	BLK	TO	DD	TD	QD	PTS		SCORE
Torreglia Hot Carls (60-59-21)		.4836	.8000	66	.3815	161	96	25	0.347	23	72	3	0	0	554		3-10-1
Team Spinelli (56-66-18)		.4857	.8769	62	.3974	173	128	37	0.463	21	80	4	1	0	650		10-3-1
Full Box Score
 
TEAM		STATISTICS		TOTAL
NAME		FG%	FT%	3PM	TP%	REB	AST	STL	STR	BLK	TO	DD	TD	QD	PTS		SCORE
Ciccino Lo Balbo Boys (57-65-18)		.4850	.7822	30	.3061	129	93	35	0.673	19	52	4	0	0	401		4-7-3
Madrid Daytodayers (64-55-21)		.4494	.7535	57	.3931	190	104	43	0.672	26	64	4	0	0	590		7-4-3
Full Box Score
 
TEAM		STATISTICS		TOTAL
NAME		FG%	FT%	3PM	TP%	REB	AST	STL	STR	BLK	TO	DD	TD	QD	PTS		SCORE
PD Garden City Radicchiati (56-63-21)		.4814	.6757	43	.4216	195	131	34	0.442	23	77	8	1	0	506		8-4-2
Chicago Squirt (71-51-18)		.4653	.8102	51	.3696	259	115	28	0.341	18	82	7	1	0	604		4-8-2
Full Box Score
 
TEAM		STATISTICS		TOTAL
NAME		FG%	FT%	3PM	TP%	REB	AST	STL	STR	BLK	TO	DD	TD	QD	PTS		SCORE
Ploaghe Porceddus (46-79-15)		.4956	.7917	52	.4298	230	109	40	0.580	19	69	9	1	0	595		7-6-1
Curry curry Bovolenters (58-64-18)		.4747	.8271	34	.2833	204	113	42	0.667	20	63	6	0	0	538		6-7-1
Full Box Score
 

