TEAM		STATISTICS		TOTAL
NAME		FG%	FT%	3PM	TP%	REB	AST	STL	STR	BLK	TO	DD	TD	QD	PTS		SCORE
Cadoneghe Sbardellers (81-60-27)		.4244	.8317	51	.3446	162	135	29	0.509	16	57	4	0	0	517		2-10-2
Chicago Squirt (85-62-21)		.4725	.8344	61	.3789	261	130	42	0.618	28	68	9	0	0	713		10-2-2
Full Box Score
 
TEAM		STATISTICS		TOTAL
NAME		FG%	FT%	3PM	TP%	REB	AST	STL	STR	BLK	TO	DD	TD	QD	PTS		SCORE
Madrid Daytodayers (81-62-25)		.5048	.7921	54	.3803	241	136	34	0.493	25	69	7	0	0	723		8-4-2
Team Spinelli (64-80-24)		.4496	.8241	28	.3043	162	97	36	0.706	22	51	0	0	0	447		4-8-2
Full Box Score
 
TEAM		STATISTICS		TOTAL
NAME		FG%	FT%	3PM	TP%	REB	AST	STL	STR	BLK	TO	DD	TD	QD	PTS		SCORE
Torreglia Hot Carls (65-79-24)		.4194	.8136	42	.3360	137	107	27	0.551	8	49	2	0	0	376		2-11-1
Curry curry Bovolenters (78-70-20)		.4771	.8492	56	.4000	192	145	49	0.490	20	100	5	1	0	624		11-2-1
Full Box Score
 
TEAM		STATISTICS		TOTAL
NAME		FG%	FT%	3PM	TP%	REB	AST	STL	STR	BLK	TO	DD	TD	QD	PTS		SCORE
Amore per tutti (83-68-17)		.4653	.8018	42	.3621	236	105	33	0.516	27	64	7	0	0	507		8-5-1
Ploaghe Porceddus (60-91-17)		.5154	.7030	35	.3846	227	91	23	0.315	17	73	8	2	0	508		5-8-1
Full Box Score
 
TEAM		STATISTICS		TOTAL
NAME		FG%	FT%	3PM	TP%	REB	AST	STL	STR	BLK	TO	DD	TD	QD	PTS		SCORE
Ciccino Lo Balbo Boys (68-79-21)		.4703	.8091	53	.3292	169	92	39	0.527	16	74	6	0	0	554		7-5-2
PD Garden City Radicchiati (65-79-24)		.4825	.7353	48	.4248	130	100	30	0.429	29	70	3	0	0	481		5-7-2
Full Box Score
 

