
TEAM		STATISTICS		TOTAL
NAME		FG%	FT%	3PM	TP%	REB	AST	STL	STR	BLK	TO	DD	TD	QD	PTS		SCORE
Cadoneghe Sbardellers (130-114-36)		.4537	.8036	66	.3793	296	184	57	0.620	32	92	9	0	0	636		5-8-1
Ponte4 martirers (140-103-37)		.4632	.8372	81	.3951	239	166	70	0.737	27	95	2	1	0	793		8-5-1
Full Box Score
 
TEAM		STATISTICS		TOTAL
NAME		FG%	FT%	3PM	TP%	REB	AST	STL	STR	BLK	TO	DD	TD	QD	PTS		SCORE
Torreglia Shockers (131-115-34)		.4729	.7023	45	.3750	231	154	33	0.440	32	75	10	1	0	555		4-8-2
Madrid AssTrainers (134-104-42)		.4708	.7548	42	.3387	259	194	42	0.583	37	72	10	0	0	659		8-4-2
Full Box Score
 
TEAM		STATISTICS		TOTAL
NAME		FG%	FT%	3PM	TP%	REB	AST	STL	STR	BLK	TO	DD	TD	QD	PTS		SCORE
Amore per tutti (123-120-37)		.4414	.7772	68	.3656	276	187	50	0.472	40	106	10	1	0	723		8-4-2
Ploaghe Porceddus (121-118-41)		.4423	.8175	53	.3813	214	105	29	0.433	12	67	6	1	0	578		4-8-2
Full Box Score
 
TEAM		STATISTICS		TOTAL
NAME		FG%	FT%	3PM	TP%	REB	AST	STL	STR	BLK	TO	DD	TD	QD	PTS		SCORE
Pyongyang Best Korea (115-122-43)		.4252	.7895	38	.3689	154	49	22	0.733	16	30	2	0	0	339		4-7-3
Sciarlot DirtySanchez (117-120-43)		.4161	.8235	38	.3333	214	139	43	0.614	42	70	6	0	0	580		7-4-3
Full Box Score
 
TEAM		STATISTICS		TOTAL
NAME		FG%	FT%	3PM	TP%	REB	AST	STL	STR	BLK	TO	DD	TD	QD	PTS		SCORE
Team Perali (92-149-39)		.4696	.6933	16	.2581	309	107	37	0.435	22	85	14	1	0	584		7-6-1
Chicago Squirt (102-140-38)		.4438	.7650	56	.3500	274	115	31	0.333	25	93	8	0	0	638		6-7-1
Full Box Score
 

